CGATS.17
ORIGINATOR "CLTool"
FILE_DESCRIPTOR "Unknown"
CREATED "2019-01-07T13:40:34"
LGOROWLENGTH	33
NUMBER_OF_FIELDS 3
BEGIN_DATA_FORMAT
LAB_L	LAB_A	LAB_B
END_DATA_FORMAT
NUMBER_OF_SETS 1617
BEGIN_DATA
47.606	72.872	5.180
53.608	61.698	3.712
60.420	49.214	4.136
67.565	36.811	5.601
74.790	25.079	7.633
79.584	17.728	9.168
84.334	10.764	10.792
89.028	4.172	12.472
93.658	-2.070	14.188
47.768	73.597	0.824
53.862	62.419	-1.346
60.760	49.953	-1.551
67.984	37.591	-0.673
75.281	25.912	0.796
80.120	18.601	1.965
84.913	11.677	3.228
89.650	5.127	4.550
94.321	-1.075	5.911
47.924	74.351	-3.228
54.116	63.177	-6.131
61.105	50.741	-6.980
68.411	38.433	-6.695
75.782	26.821	-5.788
80.668	19.558	-4.982
85.506	12.684	-4.077
90.286	6.182	-3.106
95.000	0.030	-2.093
42.154	63.076	-3.004
53.372	43.381	-6.105
65.981	22.971	-5.008
74.331	10.843	-3.502
78.423	5.272	-2.660
82.447	0.011	-1.792
45.094	67.838	1.638
50.933	56.874	0.082
57.553	44.642	0.345
64.483	32.509	1.596
71.478	21.045	3.377
76.112	13.866	4.729
80.698	7.066	6.159
85.224	0.631	7.636
89.682	-5.462	9.140
45.256	68.599	-2.652
51.190	57.637	-4.897
57.898	45.432	-5.253
64.908	33.349	-4.579
71.976	21.947	-3.351
76.655	14.813	-2.359
81.285	8.060	-1.284
85.853	1.671	-0.158
90.352	-4.376	0.998
45.412	69.390	-6.635
51.447	58.438	-9.602
58.247	46.273	-10.591
65.340	34.253	-10.501
72.483	22.927	-9.827
77.210	15.847	-9.192
81.885	9.149	-8.468
86.496	2.815	-7.687
91.038	-3.178	-6.873
40.096	58.621	-5.779
50.962	39.490	-9.137
63.164	19.633	-8.453
71.233	7.823	-7.258
75.184	2.393	-6.578
79.066	-2.737	-5.873
42.473	62.720	-2.079
48.169	51.921	-3.692
54.611	39.913	-3.565
61.339	28.034	-2.507
68.112	16.828	-0.965
72.590	9.818	0.210
77.013	3.182	1.450
81.372	-3.097	2.727
85.659	-9.041	4.021
42.636	63.527	-6.301
48.430	52.738	-8.590
54.962	40.767	-9.070
61.771	28.947	-8.580
68.617	17.814	-7.581
73.141	10.856	-6.760
77.609	4.272	-5.869
82.010	-1.954	-4.936
86.338	-7.847	-3.984
42.791	64.362	-10.214
48.689	53.593	-13.211
55.317	41.671	-14.314
62.210	29.925	-14.399
69.133	18.878	-13.944
73.704	11.981	-13.475
78.217	5.459	-12.928
82.663	-0.706	-12.335
87.034	-6.539	-11.717
37.956	54.078	-8.683
48.493	35.470	-12.260
60.301	16.152	-11.967
68.092	4.659	-11.080
71.901	-0.628	-10.562
75.640	-5.624	-10.024
39.747	57.486	-5.964
45.320	46.813	-7.601
51.601	35.000	-7.583
58.138	23.360	-6.701
64.696	12.407	-5.383
69.020	5.565	-4.380
73.285	-0.909	-3.326
77.477	-7.031	-2.248
81.593	-12.827	-1.164
39.911	58.351	-10.116
45.585	47.696	-12.415
51.959	35.932	-12.992
58.578	24.363	-12.668
65.211	13.495	-11.884
69.582	6.712	-11.228
73.890	0.298	-10.516
78.126	-5.765	-9.776
82.283	-11.502	-9.026
40.066	59.243	-13.957
45.849	48.617	-16.950
52.321	36.914	-18.139
59.026	25.431	-18.379
65.737	14.662	-18.131
70.156	7.948	-17.820
74.510	1.603	-17.447
78.790	-4.392	-17.039
82.991	-10.061	-16.618
33.466	44.641	-14.815
43.416	26.986	-18.719
54.469	8.732	-19.155
61.707	-2.119	-18.875
65.228	-7.113	-18.685
68.675	-11.837	-18.489
36.921	52.104	-10.008
42.393	41.513	-11.632
48.531	29.874	-11.695
54.887	18.461	-10.969
61.239	7.760	-9.864
65.413	1.085	-9.028
69.519	-5.224	-8.157
73.546	-11.190	-7.276
77.490	-16.836	-6.402
37.086	53.041	-14.087
42.664	42.480	-16.359
48.897	30.902	-17.005
55.339	19.576	-16.826
61.766	8.972	-16.245
65.987	2.366	-15.749
70.138	-3.876	-15.214
74.209	-9.773	-14.664
78.194	-15.353	-14.118
37.242	54.005	-17.854
42.934	43.484	-20.804
49.268	31.981	-22.050
55.797	20.756	-22.427
62.303	10.265	-22.372
66.574	3.736	-22.215
70.771	-2.428	-22.011
74.887	-8.249	-21.787
78.916	-13.753	-21.563
26.473	29.338	-24.373
35.690	13.125	-28.533
45.667	-3.422	-29.968
52.069	-13.242	-30.605
55.146	-17.773	-30.930
58.130	-22.070	-31.283
32.519	43.663	-16.331
37.886	33.129	-17.862
43.841	21.718	-17.991
49.950	10.645	-17.463
56.003	0.327	-16.656
59.957	-6.089	-16.061
63.828	-12.147	-15.460
67.607	-17.873	-14.876
71.289	-23.294	-14.321
32.688	44.750	-20.298
38.169	34.266	-22.450
44.225	22.943	-23.143
50.421	11.982	-23.146
56.553	1.786	-22.847
60.555	-4.546	-22.583
64.472	-10.522	-22.307
68.295	-16.165	-22.043
72.022	-21.503	-21.805
32.845	45.861	-23.949
38.449	35.437	-26.754
44.612	24.215	-28.028
50.900	13.381	-28.570
57.113	3.323	-28.783
61.166	-2.916	-28.848
65.131	-8.799	-28.894
69.000	-14.350	-28.946
72.771	-19.598	-29.019
20.187	13.705	-32.617
28.689	-0.342	-37.024
37.554	-14.754	-39.522
43.071	-23.412	-41.158
45.669	-27.452	-42.053
48.151	-31.318	-43.022
27.984	34.662	-22.858
33.306	24.132	-24.194
39.120	12.954	-24.321
45.005	2.251	-23.951
50.773	-7.649	-23.420
54.510	-13.788	-23.060
58.146	-19.582	-22.729
61.674	-25.061	-22.445
65.091	-30.255	-22.218
28.158	35.972	-26.705
33.607	25.520	-28.632
39.527	14.464	-29.303
45.503	3.905	-29.447
51.352	-5.844	-29.409
55.139	-11.881	-29.370
58.822	-17.572	-29.353
62.397	-22.949	-29.377
65.858	-28.041	-29.455
28.318	37.297	-30.235
33.902	26.933	-32.785
39.935	16.011	-34.017
46.008	5.612	-34.684
51.941	-3.969	-35.142
55.780	-9.894	-35.422
59.514	-15.475	-35.716
63.136	-20.741	-36.046
66.644	-25.723	-36.423
42.023	62.413	0.380
53.078	42.692	-1.480
65.551	22.189	0.628
73.823	9.983	2.745
77.878	4.372	3.879
81.867	-0.929	5.035
23.463	25.044	-29.335
28.803	14.559	-30.374
34.507	3.708	-30.445
40.184	-6.530	-30.207
45.672	-15.940	-29.943
49.192	-21.769	-29.819
52.589	-27.278	-29.763
55.860	-32.501	-29.788
59.003	-37.471	-29.904
23.645	26.693	-33.055
29.125	16.323	-34.652
34.943	5.632	-35.246
40.715	-4.427	-35.504
46.287	-13.651	-35.717
49.859	-19.355	-35.903
53.306	-24.738	-36.149
56.625	-29.835	-36.471
59.815	-34.677	-36.879
23.809	28.338	-36.457
29.439	18.090	-38.643
35.379	7.572	-39.776
41.252	-2.292	-40.540
46.912	-11.317	-41.234
50.538	-16.887	-41.728
54.037	-22.137	-42.275
57.407	-27.100	-42.890
60.645	-31.806	-43.585
39.967	57.928	-2.454
50.665	38.758	-4.590
62.729	18.793	-2.909
70.719	6.895	-1.112
74.633	1.421	-0.143
78.480	-3.753	0.844
19.282	15.256	-35.204
24.665	5.059	-35.903
30.262	-5.239	-35.918
35.723	-14.849	-35.826
40.920	-23.668	-35.848
44.214	-29.150	-35.975
47.364	-34.356	-36.210
50.367	-39.324	-36.563
53.221	-44.089	-37.042
19.474	17.403	-38.790
25.012	7.354	-40.013
30.730	-2.750	-40.529
36.291	-12.149	-40.916
41.576	-20.750	-41.398
44.924	-26.083	-41.822
48.126	-31.136	-42.347
51.181	-35.945	-42.984
54.086	-40.543	-43.740
19.641	19.501	-42.061
25.348	9.605	-43.835
31.196	-0.294	-44.868
36.862	-9.468	-45.744
42.240	-17.838	-46.690
45.645	-23.015	-47.412
48.902	-27.909	-48.225
52.010	-32.555	-49.142
54.968	-36.984	-50.172
37.828	53.349	-5.419
48.193	34.686	-7.793
59.860	15.242	-6.519
67.571	3.650	-5.038
71.343	-1.686	-4.235
75.046	-6.731	-3.419
47.024	70.656	22.801
52.739	59.578	23.629
59.279	47.124	26.186
66.174	34.685	29.705
73.167	22.871	33.754
77.814	15.452	36.626
82.423	8.413	39.587
86.979	1.745	42.610
91.475	-4.574	45.677
47.274	71.535	14.800
53.105	60.400	14.667
59.756	47.914	16.317
66.754	35.470	18.951
73.842	23.670	22.121
78.550	16.267	24.405
83.218	9.247	26.774
87.831	2.599	29.198
92.383	-3.700	31.660
47.441	72.182	9.839
53.355	61.023	9.049
60.085	48.532	10.089
67.154	36.102	12.139
74.310	24.329	14.736
79.060	16.948	16.643
83.768	9.951	18.634
88.421	3.327	20.680
93.012	-2.947	22.762
33.341	43.811	-11.677
43.106	26.060	-14.422
54.012	7.638	-13.906
61.167	-3.338	-13.051
64.650	-8.394	-12.586
68.060	-13.180	-12.122
44.509	65.506	19.038
50.054	54.617	19.732
56.397	42.391	22.088
63.074	30.195	25.356
69.836	18.622	29.117
74.323	11.357	31.781
78.767	4.466	34.522
83.155	-2.062	37.315
87.478	-8.248	40.143
44.760	66.431	11.130
50.425	55.493	10.884
56.880	43.245	12.350
63.662	31.055	14.750
70.519	19.507	17.648
75.067	12.265	19.736
79.570	5.399	21.897
84.015	-1.103	24.104
88.395	-7.262	26.339
44.928	67.113	6.232
50.677	56.156	5.341
57.213	43.910	6.210
64.067	31.742	8.036
70.992	20.228	10.372
75.583	13.013	12.088
80.126	6.176	13.879
84.611	-0.297	15.716
89.030	-6.427	17.579
26.352	28.244	-21.432
35.358	11.843	-24.510
45.174	-4.967	-25.046
51.486	-14.971	-25.141
54.521	-19.593	-25.207
57.467	-23.982	-25.308
41.883	60.240	15.095
47.276	49.494	15.684
53.436	37.462	17.863
59.907	25.488	20.899
66.444	14.143	24.384
70.774	7.027	26.846
75.055	0.280	29.371
79.276	-6.111	31.936
83.428	-12.167	34.525
42.137	61.225	7.282
47.652	50.439	6.952
53.927	38.396	8.259
60.504	26.440	10.444
67.138	15.132	13.084
71.529	8.047	14.980
75.869	1.333	16.937
80.147	-5.024	18.929
84.355	-11.045	20.939
42.306	61.950	2.449
47.909	51.152	1.488
54.266	39.120	2.209
60.916	27.195	3.830
67.618	15.931	5.919
72.052	8.879	7.451
76.433	2.199	9.046
80.751	-4.124	10.675
84.998	-10.111	12.320
20.074	12.159	-29.881
28.328	-2.223	-33.296
37.013	-17.028	-34.957
42.429	-25.960	-36.089
44.980	-30.142	-36.746
47.415	-34.154	-37.484
39.149	54.818	10.977
44.409	44.169	11.491
50.401	32.298	13.519
56.677	20.525	16.340
62.996	9.397	19.563
67.172	2.426	21.827
71.292	-4.181	24.139
75.346	-10.438	26.478
79.325	-16.367	28.828
39.407	55.880	3.262
44.793	45.201	2.878
50.903	33.334	4.053
57.285	21.594	6.041
63.703	10.517	8.435
67.940	3.586	10.146
72.120	-2.979	11.903
76.231	-9.193	13.681
80.267	-15.079	15.466
39.578	56.659	-1.504
45.055	45.978	-2.504
51.248	34.131	-1.903
57.706	22.433	-0.468
64.193	11.411	1.386
68.473	4.519	2.739
72.694	-2.005	4.141
76.845	-8.178	5.564
80.920	-14.023	6.992
41.889	61.773	3.996
52.787	42.045	3.350
65.128	21.468	6.476
73.325	9.197	9.219
77.345	3.551	10.658
81.299	-1.785	12.111
36.313	49.193	6.692
41.459	38.593	7.164
47.300	26.853	9.067
53.390	15.264	11.693
59.500	4.344	14.664
63.523	-2.487	16.735
67.484	-8.957	18.838
71.370	-15.083	20.952
75.177	-20.889	23.062
36.576	50.354	-0.921
41.853	39.739	-1.324
47.814	28.018	-0.255
54.014	16.480	1.555
60.222	5.629	3.715
64.308	-1.151	5.246
68.329	-7.568	6.805
72.274	-13.640	8.371
76.137	-19.392	9.929
36.750	51.204	-5.618
42.122	40.596	-6.622
48.169	28.908	-6.114
54.445	17.425	-4.846
60.724	6.641	-3.215
64.853	-0.092	-2.035
68.915	-6.460	-0.823
72.901	-12.483	0.395
76.803	-18.187	1.605
39.833	57.258	1.103
50.371	38.068	0.162
62.302	18.015	2.846
70.216	6.042	5.260
74.094	0.529	6.528
77.907	-4.683	7.808
31.889	40.242	-0.010
36.905	29.632	0.467
42.549	18.038	2.233
48.383	6.705	4.601
54.188	-3.911	7.216
57.988	-10.535	9.006
61.710	-16.803	10.797
65.345	-22.739	12.571
68.888	-28.369	14.317
32.162	41.614	-7.464
37.319	31.015	-7.824
43.089	19.474	-6.860
49.035	8.226	-5.282
54.942	-2.288	-3.452
58.805	-8.839	-2.185
62.589	-15.034	-0.919
66.283	-20.896	0.328
69.884	-26.452	1.542
32.343	42.613	-12.052
37.601	32.040	-12.988
43.462	20.557	-12.566
49.487	9.388	-11.512
55.466	-1.037	-10.195
59.373	-7.526	-9.266
63.199	-13.658	-8.337
66.935	-19.457	-7.425
70.576	-24.950	-6.547
37.695	52.642	-1.922
47.896	33.943	-3.121
59.428	14.396	-0.859
67.061	2.719	1.229
70.797	-2.661	2.326
74.465	-7.750	3.430
27.319	30.454	-6.943
32.261	19.751	-6.370
37.746	8.279	-4.675
43.346	-2.793	-2.528
48.858	-13.092	-0.249
52.436	-19.504	1.265
55.919	-25.573	2.744
59.298	-31.328	4.174
62.570	-36.801	5.544
27.609	32.157	-14.226
32.703	21.505	-14.447
38.321	10.133	-13.524
44.037	-0.808	-12.138
49.654	-10.964	-10.617
53.297	-17.276	-9.608
56.843	-23.244	-8.634
60.284	-28.897	-7.712
63.616	-34.267	-6.851
27.800	33.384	-18.697
33.004	22.787	-19.466
38.717	11.503	-19.064
44.515	0.673	-18.185
50.206	-9.364	-17.160
53.895	-15.595	-16.478
57.485	-21.482	-15.829
60.969	-27.052	-15.229
64.342	-32.339	-14.691
33.208	43.001	-8.303
42.799	25.176	-9.917
53.564	6.608	-8.446
60.639	-4.479	-7.005
64.085	-9.591	-6.256
67.459	-14.433	-5.514
22.748	19.580	-13.860
27.672	8.787	-13.098
33.029	-2.499	-11.422
38.409	-13.235	-9.470
43.633	-23.166	-7.519
46.987	-29.349	-6.284
50.225	-35.219	-5.125
53.341	-40.812	-4.052
56.330	-46.164	-3.074
23.062	21.823	-20.956
28.152	11.141	-20.944
33.649	0.015	-20.007
39.150	-10.536	-18.788
44.481	-20.270	-17.568
47.903	-26.319	-16.819
51.207	-32.050	-16.144
54.387	-37.500	-15.558
57.439	-42.704	-15.067
23.267	23.412	-25.302
28.477	12.823	-25.805
34.075	1.826	-25.368
39.662	-8.577	-24.638
45.069	-18.157	-23.897
48.539	-24.101	-23.463
51.889	-29.726	-23.101
55.113	-35.067	-22.824
58.210	-40.158	-22.641
26.220	27.162	-18.252
35.027	10.593	-20.278
44.689	-6.455	-19.914
50.915	-16.629	-19.457
53.910	-21.337	-19.257
56.817	-25.811	-19.098
18.504	7.805	-20.199
23.432	-2.846	-19.210
28.663	-13.712	-17.552
33.816	-23.940	-15.808
38.737	-33.409	-14.208
41.858	-39.345	-13.268
44.839	-45.028	-12.448
47.677	-50.503	-11.755
50.367	-55.812	-11.197
18.849	10.932	-27.093
23.957	0.459	-26.808
29.336	-10.187	-25.857
34.613	-20.176	-24.820
39.647	-29.391	-23.921
42.839	-35.146	-23.447
45.889	-40.638	-23.090
48.795	-45.907	-22.860
51.553	-50.992	-22.763
19.071	13.088	-31.304
24.312	2.749	-31.503
29.796	-7.730	-31.030
35.163	-17.537	-30.464
40.276	-26.562	-30.026
43.518	-32.184	-29.855
46.617	-37.537	-29.797
49.571	-42.659	-29.861
52.376	-47.586	-30.057
19.944	10.589	-26.903
27.967	-4.108	-29.357
36.479	-19.289	-30.183
41.798	-28.488	-30.803
44.303	-32.809	-31.216
46.694	-36.965	-31.716
46.335	68.870	49.874
51.753	58.127	53.473
58.001	45.958	58.786
64.621	33.733	65.139
71.356	22.076	72.159
75.839	14.740	77.110
80.288	7.773	82.244
84.688	1.169	87.549
89.030	-5.090	93.023
46.549	69.305	40.600
52.058	58.421	43.296
58.397	46.123	47.682
65.103	33.792	53.052
71.920	22.047	59.004
76.455	14.661	63.187
80.954	7.648	67.498
85.404	1.001	71.917
89.795	-5.299	76.434
46.781	69.906	31.441
52.389	58.911	33.210
58.825	46.519	36.676
65.622	34.117	41.102
72.524	22.321	46.071
77.114	14.907	49.570
81.667	7.871	53.169
86.169	1.203	56.846
90.611	-5.117	60.585
41.611	60.588	11.868
52.220	40.899	13.618
64.313	20.240	18.831
72.364	7.876	22.893
76.315	2.180	24.978
80.204	-3.208	27.075
43.816	63.640	45.834
49.059	53.072	49.240
55.107	41.113	54.293
61.508	29.110	60.334
68.011	17.673	66.997
72.333	10.478	71.689
76.618	3.645	76.547
80.850	-2.832	81.559
85.022	-8.972	86.722
44.031	64.089	36.653
49.366	53.383	39.175
55.506	41.299	43.323
61.993	29.195	48.403
68.577	17.675	54.026
72.952	10.433	57.970
77.287	3.557	62.029
81.568	-2.960	66.184
85.788	-9.138	70.423
44.264	64.718	27.587
49.700	53.905	29.201
55.937	41.733	32.448
62.517	29.565	36.605
69.187	18.001	41.267
73.616	10.736	44.544
78.004	3.842	47.909
82.338	-2.692	51.340
86.608	-8.885	54.823
39.556	56.016	8.861
49.799	36.841	10.275
61.478	16.679	15.013
69.245	4.597	18.723
73.055	-0.974	20.627
76.801	-6.246	22.538
41.185	58.264	41.612
46.269	47.825	44.849
52.129	36.039	49.666
58.321	24.233	55.412
64.599	13.000	61.732
68.764	5.937	66.171
72.886	-0.768	70.758
76.951	-7.124	75.480
80.951	-13.149	80.335
41.401	58.736	32.523
46.579	48.160	34.898
52.532	36.253	38.830
58.811	24.352	43.638
65.170	13.042	48.945
69.387	5.936	52.657
73.559	-0.808	56.469
77.673	-7.200	60.361
81.722	-13.260	64.324
41.635	59.402	23.550
46.916	48.725	25.038
52.969	36.738	28.089
59.341	24.780	31.996
65.787	13.434	36.363
70.058	6.311	39.424
74.284	-0.446	42.559
78.450	-6.850	45.748
82.549	-12.919	48.975
37.417	51.328	5.720
47.316	32.616	6.832
58.593	12.930	11.114
66.078	1.125	14.476
69.744	-4.322	16.197
73.346	-9.479	17.920
38.444	52.695	37.209
43.385	42.335	40.306
49.072	30.684	44.910
55.065	19.051	50.380
61.123	8.005	56.369
65.133	1.067	60.561
69.094	-5.517	64.880
72.992	-11.757	69.316
76.819	-17.674	73.865
38.661	53.198	28.214
43.698	42.704	30.469
49.480	30.938	34.210
55.561	19.215	38.766
61.702	8.100	43.768
65.763	1.123	47.254
69.774	-5.495	50.821
73.721	-11.767	54.453
77.597	-17.713	58.140
38.898	53.915	19.336
44.042	43.326	20.727
49.925	31.488	23.607
56.100	19.719	27.281
62.328	8.577	31.366
66.444	1.591	34.216
70.509	-5.035	37.125
74.508	-11.311	40.072
78.434	-17.261	43.045
32.930	41.483	-0.901
42.200	23.575	-0.296
52.699	4.791	3.122
59.621	-6.473	5.790
62.996	-11.677	7.139
66.301	-16.610	8.476
35.597	46.872	32.634
40.413	36.539	35.620
45.941	24.986	40.035
51.745	13.501	45.247
57.590	2.627	50.918
61.447	-4.194	54.867
65.247	-10.663	58.923
68.977	-16.795	63.073
72.631	-22.612	67.316
35.816	47.418	23.734
40.732	36.956	25.900
46.357	25.295	29.474
52.250	13.729	33.795
58.178	2.793	38.505
62.087	-4.060	41.769
65.937	-10.558	45.095
69.717	-16.716	48.468
73.419	-22.556	51.878
36.057	48.203	14.952
41.083	37.653	16.278
46.812	25.930	19.013
52.801	14.331	22.472
58.816	3.382	26.287
62.781	-3.474	28.931
66.685	-9.971	31.616
70.517	-16.127	34.323
74.269	-21.963	37.039
25.936	25.092	-11.231
34.379	8.263	-11.199
43.753	-9.183	-9.007
49.814	-19.650	-7.398
52.733	-24.508	-6.638
55.565	-29.134	-5.924
31.147	37.483	25.479
35.812	27.090	28.358
41.130	15.616	32.540
46.669	4.315	37.398
52.205	-6.326	42.612
55.835	-12.984	46.207
59.394	-19.298	49.871
62.870	-25.284	53.594
66.257	-30.971	57.374
31.372	38.131	16.724
36.143	27.617	18.820
41.562	16.051	22.195
47.193	4.686	26.196
52.813	-5.998	30.489
56.496	-12.678	33.427
60.106	-19.009	36.395
63.632	-25.010	39.378
67.068	-30.709	42.368
31.622	39.066	8.094
36.510	28.481	9.387
42.038	16.877	11.955
47.767	5.503	15.126
53.476	-5.171	18.557
57.216	-11.838	20.898
60.880	-18.152	23.250
64.459	-24.135	25.595
67.947	-29.814	27.923
19.654	7.477	-20.281
27.255	-7.787	-20.862
35.443	-23.657	-19.995
40.577	-33.360	-19.554
42.995	-37.950	-19.453
45.300	-42.389	-19.449
26.537	26.970	18.065
31.099	16.402	20.919
36.242	4.949	24.928
41.538	-6.193	29.470
46.773	-16.616	34.247
50.178	-23.127	37.492
53.493	-29.305	40.764
56.709	-35.178	44.055
59.821	-40.777	47.363
26.772	27.794	9.462
31.449	17.123	11.573
36.698	5.602	14.810
42.088	-5.577	18.530
47.410	-16.018	22.424
50.868	-22.533	25.042
54.236	-28.712	27.650
57.504	-34.582	30.237
60.665	-40.175	32.797
27.036	28.977	0.994
31.840	18.264	2.342
37.202	6.740	4.806
42.694	-4.413	7.728
48.108	-14.810	10.792
51.624	-21.291	12.838
55.047	-27.431	14.856
58.369	-33.260	16.833
61.584	-38.809	18.761
41.200	59.135	24.937
51.424	39.655	30.362
63.175	19.043	38.970
71.024	6.651	45.272
74.880	0.931	48.490
78.676	-4.483	51.732
21.904	14.831	10.629
26.413	4.034	13.541
31.411	-7.382	17.428
36.477	-18.329	21.679
41.415	-28.519	26.026
44.589	-34.895	28.919
47.654	-40.972	31.791
50.599	-46.788	34.636
53.420	-52.384	37.453
22.155	15.977	2.188
26.790	5.111	4.400
31.899	-6.333	7.551
37.062	-17.278	11.015
42.089	-27.448	14.518
45.320	-33.801	16.812
48.439	-39.851	19.052
51.438	-45.635	21.229
54.311	-51.192	23.339
22.441	17.596	-6.106
27.213	6.737	-4.612
32.442	-4.659	-2.201
37.710	-15.530	0.497
42.832	-25.609	3.204
46.123	-31.896	4.949
49.299	-37.874	6.625
52.355	-43.581	8.221
55.285	-49.054	9.730
39.144	54.492	21.759
48.995	35.498	26.781
60.331	15.353	34.853
67.895	3.222	40.760
71.608	-2.382	43.772
75.261	-7.691	46.805
17.577	0.769	3.732
22.052	-10.089	6.736
26.907	-21.262	10.504
31.734	-31.865	14.451
36.359	-41.767	18.345
39.292	-48.030	20.868
42.090	-54.079	23.317
44.747	-59.968	25.690
47.256	-65.751	27.984
17.850	2.534	-4.536
22.464	-8.333	-2.187
27.435	-19.480	0.880
32.363	-30.031	4.075
37.081	-39.858	7.163
40.072	-46.058	9.115
42.928	-52.032	10.965
45.641	-57.831	12.707
48.207	-63.505	14.336
18.165	4.946	-12.641
22.929	-5.844	-10.966
28.025	-16.882	-8.605
33.061	-27.302	-6.145
37.878	-36.979	-3.819
40.932	-43.066	-2.391
43.848	-48.913	-1.078
46.622	-54.568	0.113
49.248	-60.078	1.173
37.004	49.714	18.445
46.504	31.150	23.094
57.432	11.444	30.649
64.713	-0.433	36.165
68.282	-5.925	38.970
71.790	-11.130	41.790
34.277	48.141	29.304
42.544	32.384	37.888
52.127	15.409	48.912
58.498	5.184	56.708
64.644	-3.950	64.698
34.581	48.960	19.614
43.134	32.849	24.693
52.977	15.643	32.194
59.500	5.332	37.506
65.786	-3.851	42.801
34.918	50.221	9.266
43.802	33.928	11.055
53.933	16.684	15.566
60.622	6.412	18.939
67.058	-2.699	22.289
35.146	51.242	2.875
44.276	34.908	2.570
54.617	17.726	5.307
61.423	7.533	7.594
67.962	-1.485	9.908
35.362	52.360	-2.869
44.765	36.038	-5.273
55.327	18.974	-4.203
62.255	8.889	-2.887
68.900	-0.011	-1.460
26.985	-18.871	-24.544
5.300	-1.319	-0.470
32.512	39.606	11.469
41.361	21.761	15.460
51.500	2.861	22.024
58.212	-8.537	26.759
61.488	-13.816	29.145
64.697	-18.827	31.527
30.948	40.038	23.848
38.525	25.222	31.502
47.381	9.066	41.448
53.286	-0.744	48.491
58.994	-9.561	55.703
31.249	40.929	14.445
39.119	25.789	18.745
48.240	9.433	25.319
54.300	-0.445	29.998
60.149	-9.292	34.669
31.586	42.319	4.393
39.796	27.051	5.524
49.213	10.708	9.207
55.443	0.902	12.019
61.446	-7.844	14.825
31.812	43.444	-1.802
40.278	28.177	-2.697
49.910	11.940	-0.736
56.261	2.238	1.020
62.371	-6.390	2.821
32.025	44.666	-7.343
40.774	29.461	-10.279
50.636	13.389	-9.947
57.113	3.826	-9.141
63.333	-4.660	-8.209
23.189	36.127	-3.057
10.351	-2.474	-0.831
25.504	22.462	0.577
33.473	5.470	3.741
42.457	-12.333	8.876
48.294	-23.093	12.412
51.106	-28.107	14.136
53.836	-32.895	15.816
27.385	31.236	18.003
34.313	17.200	24.795
42.450	1.769	33.686
47.871	-7.666	39.958
53.101	-16.198	46.346
27.682	32.251	8.888
34.915	17.932	12.484
43.325	2.345	18.153
48.906	-7.127	22.178
54.282	-15.660	26.172
28.017	33.847	-0.863
35.607	19.470	-0.305
44.325	3.972	2.581
50.083	-5.381	4.810
55.618	-13.768	7.018
28.241	35.129	-6.855
36.102	20.814	-8.247
45.044	5.480	-7.029
50.928	-3.731	-5.821
56.575	-11.964	-4.585
28.448	36.508	-12.188
36.609	22.321	-15.555
45.793	7.218	-15.921
51.808	-1.815	-15.640
57.569	-9.868	-15.253
43.130	-3.240	43.435
15.568	-3.314	-1.120
19.200	3.306	-9.063
26.255	-12.580	-6.798
34.008	-29.263	-3.217
38.890	-39.600	-1.004
41.186	-44.540	-0.024
43.372	-49.359	0.857
21.907	16.294	9.030
27.886	3.217	14.563
34.919	-11.297	21.842
39.561	-20.294	26.885
43.984	-28.560	31.919
22.197	17.665	0.350
28.510	4.420	2.944
35.839	-10.122	7.234
40.653	-19.067	10.206
45.235	-27.239	13.054
22.532	19.808	-8.935
29.241	6.692	-9.162
36.905	-7.570	-7.479
41.911	-16.267	-6.188
46.667	-24.161	-5.001
22.751	21.491	-14.613
29.763	8.584	-16.660
37.673	-5.369	-16.550
42.817	-13.831	-16.223
47.696	-21.478	-15.951
22.947	23.258	-19.623
30.297	10.635	-23.525
38.473	-2.937	-24.921
43.761	-11.127	-25.478
48.766	-18.502	-26.014
12.096	6.539	-17.491
8.280	-0.995	-0.689
40.829	58.199	37.905
50.720	39.136	47.278
62.167	18.804	59.835
69.831	6.534	68.953
73.600	0.864	73.670
77.310	-4.507	78.492
17.187	0.374	1.378
22.131	-11.819	5.502
27.940	-25.688	10.977
31.696	-34.621	14.629
35.167	-43.203	18.096
17.466	2.407	-6.867
22.785	-9.682	-5.414
28.925	-23.281	-2.676
32.876	-31.927	-0.913
36.532	-40.131	0.582
17.796	5.494	-15.678
23.562	-6.103	-16.808
30.080	-19.046	-16.480
34.250	-27.164	-16.265
38.109	-34.754	-16.287
18.007	7.826	-21.034
24.116	-3.308	-23.840
30.913	-15.697	-24.974
35.239	-23.403	-25.652
39.242	-30.542	-26.516
18.183	10.181	-25.714
24.678	-0.417	-30.242
31.776	-12.197	-32.783
36.268	-19.472	-34.287
40.418	-26.160	-35.903
23.544	-29.599	12.320
15.066	-1.459	-0.941
38.773	53.519	34.555
48.288	34.926	43.445
59.317	15.042	55.384
66.697	3.022	64.037
70.323	-2.539	68.508
73.890	-7.809	73.072
26.661	38.164	22.159
33.396	25.332	29.501
41.088	11.648	38.565
46.068	3.575	44.724
50.721	-3.445	50.795
26.902	38.852	14.811
33.874	25.731	19.263
41.774	11.884	25.386
46.868	3.780	29.466
51.616	-3.218	33.278
27.169	39.908	6.719
34.415	26.634	8.450
42.542	12.772	12.140
47.757	4.732	14.677
52.602	-2.151	16.969
27.349	40.757	1.658
34.797	27.434	1.703
43.085	13.614	4.039
48.381	5.643	5.797
53.290	-1.147	7.391
27.519	41.679	-2.907
35.188	28.336	-4.503
43.644	14.577	-3.353
49.020	6.674	-2.203
53.986	-0.036	-1.085
22.446	32.981	18.791
21.841	-1.944	-1.265
36.635	48.690	31.068
45.792	30.511	39.503
56.411	11.045	50.843
63.506	-0.737	59.037
66.988	-6.193	63.260
70.411	-11.367	67.566
24.187	31.788	18.103
30.308	19.896	24.590
37.417	6.936	32.784
42.077	-0.827	38.421
46.482	-7.661	44.032
24.426	32.536	10.986
30.789	20.381	14.712
38.111	7.278	20.094
42.889	-0.506	23.757
47.396	-7.312	27.247
24.693	33.692	3.137
31.336	21.427	4.236
38.893	8.344	7.262
43.798	0.643	9.434
48.410	-6.036	11.462
24.872	34.618	-1.764
31.723	22.341	-2.303
39.448	9.329	-0.605
44.439	1.711	0.802
49.119	-4.865	2.142
25.039	35.618	-6.166
32.119	23.360	-8.314
40.018	10.442	-7.792
45.095	2.909	-6.997
49.839	-3.575	-6.145
31.053	4.809	-10.693
27.727	-2.470	-1.590
32.143	38.424	23.742
40.632	20.918	31.348
50.454	2.200	41.531
56.977	-9.142	48.811
60.164	-14.404	52.538
63.286	-19.405	56.318
21.478	24.727	13.654
27.020	13.616	19.341
33.537	1.296	26.659
37.838	-6.185	31.722
41.928	-12.849	36.777
21.713	25.570	6.767
27.504	14.232	9.826
34.243	1.800	14.461
38.669	-5.683	17.652
42.867	-12.303	20.713
21.978	26.881	-0.837
28.060	15.490	-0.301
35.044	3.132	2.058
39.605	-4.239	3.811
43.916	-10.706	5.468
22.154	27.925	-5.575
28.455	16.568	-6.624
35.615	4.322	-5.560
40.267	-2.941	-4.558
44.653	-9.285	-3.577
22.316	29.040	-9.812
28.858	17.756	-12.428
36.203	5.650	-12.525
40.946	-1.503	-12.135
45.402	-7.735	-11.651
37.620	-8.998	4.606
12.346	-0.572	-0.890
25.129	20.789	12.309
32.699	3.998	18.807
41.342	-13.786	27.305
46.978	-24.602	33.190
49.695	-29.658	36.141
52.332	-34.495	39.093
17.283	12.675	6.768
21.963	2.528	11.265
27.541	-8.991	17.193
31.224	-16.154	21.276
34.711	-22.685	25.309
17.507	13.772	0.222
22.458	3.492	2.305
28.277	-8.043	5.751
32.097	-15.143	8.111
35.707	-21.563	10.329
17.765	15.475	-7.011
23.035	5.289	-7.278
29.123	-6.031	-5.973
33.093	-12.926	-4.966
36.832	-19.101	-4.062
17.934	16.806	-11.499
23.445	6.768	-13.258
29.728	-4.334	-13.187
33.801	-11.056	-12.901
37.625	-17.045	-12.648
18.084	18.196	-15.481
23.862	8.353	-18.729
30.351	-2.501	-19.783
34.527	-9.047	-20.100
38.433	-14.865	-20.348
36.406	10.535	10.268
21.100	-0.950	-1.288
18.814	0.513	2.110
25.411	-15.529	7.401
32.783	-32.572	14.073
37.440	-43.258	18.430
39.629	-48.408	20.521
41.709	-53.468	22.545
13.712	0.278	0.971
17.466	-9.050	4.161
21.985	-20.025	8.505
24.930	-27.170	11.424
27.650	-34.016	14.182
13.920	1.794	-5.241
17.971	-7.467	-4.245
22.760	-18.239	-2.170
25.863	-25.148	-0.820
28.728	-31.672	0.305
14.166	4.104	-12.100
18.569	-4.789	-13.270
23.663	-15.065	-13.183
26.939	-21.559	-13.085
29.959	-27.592	-13.170
14.322	5.855	-16.335
18.994	-2.696	-18.893
24.309	-12.568	-19.964
27.706	-18.757	-20.545
30.829	-24.456	-21.242
14.452	7.625	-20.058
19.424	-0.534	-24.017
24.973	-9.983	-26.159
28.491	-15.878	-27.320
31.714	-21.277	-28.503
95.000	0.030	-2.093
29.887	-1.291	-1.751
38.440	-0.963	-2.155
32.804	-0.375	-1.243
76.405	-0.297	-2.397
9.061	16.583	-5.024
16.884	0.802	-1.501
16.002	-0.111	0.005
18.344	28.869	3.824
23.999	18.296	5.494
29.959	7.945	8.192
36.207	-1.511	10.261
18.596	30.249	-3.373
24.571	19.532	-3.889
30.725	9.176	-2.435
36.981	-0.068	-0.633
54.527	17.971	-3.673
45.679	6.946	-14.633
66.232	-3.425	21.195
66.112	-1.405	21.794
65.295	-2.138	20.711
54.805	-12.570	6.693
53.238	15.833	14.633
89.023	1.994	-6.047
91.751	-3.029	0.078
91.251	3.541	2.600
88.564	1.191	-0.704
88.075	-2.096	-5.160
87.577	4.081	-2.668
85.028	1.889	-5.746
90.250	-0.720	3.301
87.619	-2.881	0.070
87.144	3.360	2.464
84.592	1.128	-0.673
37.850	-1.620	-2.200
48.605	-1.212	-2.745
46.626	-0.561	-1.960
82.266	-0.315	-2.600
8.058	14.500	-5.775
15.041	1.780	-4.068
17.282	-1.412	0.047
15.000	20.123	-0.896
19.669	11.385	-0.331
24.880	2.205	1.494
31.005	-7.074	3.631
15.251	21.765	-7.613
20.260	13.010	-9.198
25.697	3.900	-8.709
31.914	-5.178	-7.177
89.279	-1.812	30.251
88.129	-2.848	28.718
73.585	-17.316	9.253
72.462	23.158	21.621
71.493	21.956	20.318
59.146	5.501	3.622
68.079	-0.673	-2.450
67.924	1.251	-1.675
67.113	0.581	-2.654
56.724	-8.721	-15.312
54.636	18.173	-5.046
68.757	-0.245	0.182
67.936	-0.912	-0.814
57.418	-10.197	-13.710
67.784	1.020	-0.050
66.972	0.345	-1.036
56.575	-9.045	-13.787
55.219	18.776	-2.824
44.891	-1.961	-2.637
57.843	-1.451	-3.299
59.094	-0.709	-2.568
22.464	-8.333	-2.187
4.841	2.817	-9.687
9.544	-6.311	-11.993
11.957	-11.589	-10.068
11.971	11.647	-5.299
15.962	3.959	-5.460
20.516	-4.468	-4.435
26.021	-13.554	-3.103
12.205	13.666	-11.653
16.569	6.125	-13.896
21.383	-2.108	-14.236
27.030	-10.903	-13.709
91.794	1.799	-2.350
90.651	0.858	-3.728
76.256	-11.881	-21.172
74.361	26.247	-5.672
73.399	25.118	-6.848
61.179	10.031	-21.886
92.970	-0.308	0.273
91.811	-1.242	-1.135
77.216	-13.946	-18.948
91.597	1.469	-0.058
90.453	0.521	-1.448
76.046	-12.353	-19.041
74.213	25.972	-3.764
73.250	24.837	-4.950
61.021	9.645	-20.113
90.609	-3.626	30.977
89.444	-4.650	29.424
74.710	-18.974	9.709
15.925	-0.300	-0.848
62.145	-1.571	-3.567
70.485	-0.842	-3.116
35.992	-3.855	-2.253
8.919	15.600	-0.182
16.563	0.442	2.911
16.504	-0.559	-1.147
9.305	3.001	-9.054
12.585	-3.676	-10.002
16.370	-11.388	-9.958
20.897	-20.410	-10.001
9.510	5.533	-15.041
13.202	-0.725	-17.981
17.289	-8.010	-19.292
22.022	-16.455	-20.270
92.425	0.879	-3.809
77.717	-12.134	-21.629
74.798	25.668	-6.991
93.610	-1.268	-1.158
78.698	-14.244	-19.356
93.392	1.503	-0.057
92.223	0.534	-1.478
77.502	-12.618	-19.452
75.631	26.541	-3.839
74.646	25.382	-5.051
62.141	9.869	-20.560
91.192	-4.747	30.072
91.024	-1.845	30.918
89.849	-2.905	29.351
74.987	-17.698	9.463
72.852	22.442	20.789
92.012	-0.900	-3.445
77.429	-13.466	-21.107
27.309	-0.678	-1.509
17.756	-0.055	-0.334
75.845	-0.907	-3.375
51.005	-2.333	-3.071
7.891	13.370	-1.232
14.627	1.094	0.754
17.258	-1.977	0.989
17.972	27.478	15.396
23.226	17.250	21.292
28.891	6.928	27.979
34.985	-3.110	35.467
18.148	28.026	9.913
23.590	17.580	13.594
29.399	7.196	17.999
35.579	-2.608	22.052
16.002	-0.111	0.005
18.406	-0.106	-0.076
21.845	-0.099	-0.188
27.219	-0.088	-0.353
32.239	-0.078	-0.499
36.981	-0.068	-0.633
41.494	-0.060	-0.756
45.815	-0.051	-0.872
53.986	-0.036	-1.085
61.647	-0.023	-1.280
68.900	-0.011	-1.460
75.816	0.000	-1.630
79.164	0.006	-1.712
82.447	0.011	-1.792
85.668	0.016	-1.869
88.831	0.020	-1.945
90.703	0.023	-1.990
91.941	0.025	-2.020
93.170	0.027	-2.049
93.782	0.028	-2.064
17.534	-0.027	-0.081
66.250	-1.693	-3.832
4.745	1.527	-5.493
9.048	-7.790	-6.894
11.656	-12.816	-6.879
14.622	18.430	9.937
18.876	9.911	14.408
23.756	0.701	19.931
29.624	-9.094	26.948
14.800	19.098	4.816
19.247	10.413	7.269
24.287	1.162	10.717
30.290	-8.435	14.722
89.030	-5.090	93.023
89.129	-5.141	90.794
89.279	-5.205	87.451
89.534	-5.274	81.908
89.795	-5.299	76.434
90.061	-5.280	71.049
90.333	-5.219	65.764
90.611	-5.117	60.585
91.182	-4.793	50.543
91.773	-4.318	40.910
92.383	-3.700	31.660
93.012	-2.947	22.762
93.333	-2.524	18.436
93.658	-2.070	14.188
93.988	-1.586	10.014
94.321	-1.075	5.911
94.523	-0.754	3.482
94.659	-0.536	1.876
94.795	-0.313	0.281
94.863	-0.200	-0.513
35.034	-0.161	-0.885
81.008	-0.972	-3.628
8.696	14.535	7.035
15.955	-0.652	16.155
16.422	-3.751	15.508
11.608	9.509	4.998
15.153	1.867	8.466
19.338	-6.736	12.954
24.519	-16.482	18.810
11.778	10.354	0.134
15.529	2.615	1.746
19.892	-5.969	4.317
25.239	-15.455	7.434
47.924	74.351	-3.228
48.678	73.017	-3.782
49.856	70.903	-4.505
51.931	67.145	-5.454
54.116	63.177	-6.131
56.387	59.080	-6.586
58.722	54.919	-6.858
61.105	50.741	-6.980
65.959	42.475	-6.878
70.868	34.471	-6.445
75.782	26.821	-5.788
80.668	19.558	-4.982
83.094	16.073	-4.540
85.506	12.684	-4.077
87.904	9.388	-3.598
90.286	6.182	-3.106
91.707	4.301	-2.806
92.651	3.064	-2.603
93.593	1.840	-2.400
94.063	1.234	-2.298
50.331	-0.219	-1.474
87.923	-0.333	-2.796
7.630	12.072	5.353
13.916	-0.198	13.087
16.678	-4.413	16.172
8.972	0.203	0.717
11.766	-6.761	3.108
15.131	-14.982	6.357
19.251	-25.192	10.469
9.126	1.317	-3.897
12.143	-5.602	-3.198
15.709	-13.658	-1.702
20.035	-23.359	-0.064
54.968	-36.984	-50.172
55.696	-36.401	-49.344
56.808	-35.449	-48.069
58.704	-33.700	-45.866
60.645	-31.806	-43.585
62.621	-29.820	-41.241
64.623	-27.783	-38.850
66.644	-25.723	-36.423
70.723	-21.618	-31.500
74.822	-17.611	-26.533
78.916	-13.753	-21.563
82.991	-10.061	-16.618
85.017	-8.279	-14.161
87.034	-6.539	-11.717
89.041	-4.839	-9.287
91.038	-3.178	-6.873
92.232	-2.200	-5.432
93.025	-1.556	-4.474
93.816	-0.917	-3.520
94.211	-0.600	-3.043
63.968	-0.260	-1.963
91.441	-0.120	-2.428
4.581	0.101	0.351
8.241	-9.567	4.035
10.759	-16.203	6.672
88.831	0.020	-1.945
88.201	-1.003	5.477
87.585	-1.928	13.158
86.399	-3.455	29.379
84.748	-4.800	56.146
84.458	5.732	-2.887
83.867	4.754	4.216
83.289	3.865	11.570
82.175	2.393	27.094
80.626	1.072	52.643
80.019	11.772	-3.793
79.468	10.838	2.986
78.929	9.988	10.008
77.890	8.569	24.832
76.445	7.269	49.185
70.979	24.904	-5.400
70.514	24.058	0.711
70.057	23.280	7.053
69.175	21.961	20.465
67.948	20.688	42.460
57.343	47.041	-6.537
57.024	46.302	-1.514
56.709	45.608	3.738
56.094	44.384	14.941
55.231	43.063	33.412
85.156	-2.960	-6.380
84.520	-4.068	0.920
83.898	-5.076	8.478
82.700	-6.757	24.445
81.036	-8.289	50.794
80.941	2.606	-7.140
80.343	1.547	-0.153
79.759	0.581	7.083
78.634	-1.037	22.366
77.072	-2.535	47.526
76.658	8.490	-7.869
76.100	7.481	-1.201
75.555	6.558	5.709
74.506	5.002	20.306
73.047	3.536	44.294
67.921	21.282	-9.142
67.450	20.372	-3.132
66.988	19.531	3.109
66.096	18.094	16.318
64.857	16.678	37.997
54.711	42.852	-9.856
54.388	42.065	-4.917
54.069	41.324	0.251
53.448	40.011	11.288
52.576	38.582	29.508
81.438	-6.085	-10.881
80.793	-7.293	-3.706
80.163	-8.400	3.726
78.950	-10.267	19.431
77.269	-12.027	45.357
77.381	-0.667	-11.457
76.775	-1.821	-4.590
76.183	-2.880	2.525
75.043	-4.673	17.560
73.464	-6.386	42.324
73.252	5.061	-12.011
72.687	3.963	-5.457
72.135	2.951	1.337
71.071	1.230	15.700
69.595	-0.437	39.317
64.815	17.513	-12.957
64.337	16.526	-7.051
63.868	15.609	-0.914
62.964	14.028	12.086
61.709	12.437	33.442
52.015	38.532	-13.274
51.688	37.687	-8.423
51.365	36.888	-3.341
50.734	35.465	7.525
49.850	33.901	25.488
73.894	-12.797	-20.038
73.225	-14.268	-13.127
72.572	-15.636	-5.962
71.316	-18.001	9.199
69.580	-20.392	34.250
70.155	-7.680	-20.245
69.527	-9.083	-13.630
68.913	-10.390	-6.769
67.732	-12.656	7.750
66.100	-14.965	31.694
66.336	-2.272	-20.448
65.750	-3.606	-14.135
65.176	-4.850	-7.582
64.073	-7.017	6.291
62.547	-9.248	29.140
58.488	9.492	-20.759
57.991	8.299	-15.071
57.503	7.178	-9.152
56.564	5.205	3.410
55.262	3.119	24.093
46.462	29.428	-20.356
46.123	28.426	-15.689
45.787	27.469	-10.788
45.131	25.741	-0.280
44.213	23.790	17.145
62.487	-23.878	-33.858
61.763	-25.991	-27.382
61.054	-28.009	-20.655
59.691	-31.668	-6.386
57.812	-35.805	17.257
59.242	-19.237	-33.486
58.561	-21.248	-27.287
57.894	-23.172	-20.844
56.612	-26.667	-7.172
54.843	-30.633	15.450
55.896	-14.339	-33.152
55.259	-16.249	-27.236
54.636	-18.079	-21.081
53.436	-21.411	-8.011
51.780	-25.210	13.596
48.919	-3.687	-32.527
48.379	-5.393	-27.200
47.848	-7.035	-21.641
46.822	-10.047	-9.798
45.405	-13.529	9.791
37.964	14.505	-31.197
37.595	13.093	-26.833
37.228	11.718	-22.231
36.509	9.150	-12.315
35.503	6.070	4.231
56.708	0.433	-1.056
51.671	-34.072	-46.578
45.166	68.615	-3.108
83.274	-4.796	85.617
43.713	63.428	43.267
44.609	-59.282	25.104
20.315	16.167	-36.887
END_DATA
